{
  "applicantgender" : {
    "_id" : "wm-applicantgender-wm.Variable-1495175744431",
    "name" : "applicantgender",
    "owner" : "Page",
    "category" : "wm.Variable",
    "dataBinding" : [ ],
    "dataSet" : [ {
      "name" : "Male",
      "dataValue" : "Male"
    }, {
      "name" : "Female",
      "dataValue" : "Female"
    }, {
      "name" : "Transgender",
      "dataValue" : "Transgender"
    } ],
    "type" : "entry",
    "isList" : true,
    "saveInPhonegap" : false
  },
  "Citizenship" : {
    "_id" : "wm-Citizenship-wm.Variable-1495184298653",
    "name" : "Citizenship",
    "owner" : "Page",
    "category" : "wm.Variable",
    "dataBinding" : [ ],
    "dataSet" : [ {
      "name" : "Birth",
      "dataValue" : "Birth"
    }, {
      "name" : "Descendant",
      "dataValue" : "Descendant"
    }, {
      "name" : "Registration/Naturalization",
      "dataValue" : "Registration/Naturalization"
    } ],
    "type" : "entry",
    "isList" : true,
    "saveInPhonegap" : false
  },
  "CountriesList" : {
    "_id" : "wm-CountriesList-wm.Variable-1495183213961",
    "name" : "CountriesList",
    "owner" : "Page",
    "category" : "wm.Variable",
    "dataBinding" : [ ],
    "dataSet" : [ {
      "dataValue" : "United States"
    }, {
      "dataValue" : "United Kingdom"
    }, {
      "dataValue" : "Afghanistan"
    }, {
      "dataValue" : "Albania"
    }, {
      "dataValue" : "Algeria"
    }, {
      "dataValue" : "American Samoa"
    }, {
      "dataValue" : "Andorra"
    }, {
      "dataValue" : "Angola"
    }, {
      "dataValue" : "Anguilla"
    }, {
      "dataValue" : "Antarctica"
    }, {
      "dataValue" : "Antigua and Barbuda"
    }, {
      "dataValue" : "Argentina"
    }, {
      "dataValue" : "Armenia"
    }, {
      "dataValue" : "Aruba"
    }, {
      "dataValue" : "Australia"
    }, {
      "dataValue" : "Austria"
    }, {
      "dataValue" : "Azerbaijan"
    }, {
      "dataValue" : "Bahamas"
    }, {
      "dataValue" : "Bahrain"
    }, {
      "dataValue" : "Bangladesh"
    }, {
      "dataValue" : "Barbados"
    }, {
      "dataValue" : "Belarus"
    }, {
      "dataValue" : "Belgium"
    }, {
      "dataValue" : "Belize"
    }, {
      "dataValue" : "Benin"
    }, {
      "dataValue" : "Bermuda"
    }, {
      "dataValue" : "Bhutan"
    }, {
      "dataValue" : "Bolivia"
    }, {
      "dataValue" : "Bosnia and Herzegovina"
    }, {
      "dataValue" : "Botswana"
    }, {
      "dataValue" : "Bouvet Island"
    }, {
      "dataValue" : "Brazil"
    }, {
      "dataValue" : "British Indian Ocean Territory"
    }, {
      "dataValue" : "Brunei Darussalam"
    }, {
      "dataValue" : "Bulgaria"
    }, {
      "dataValue" : "Burkina Faso"
    }, {
      "dataValue" : "Burundi"
    }, {
      "dataValue" : "Cambodia"
    }, {
      "dataValue" : "Cameroon"
    }, {
      "dataValue" : "Canada"
    }, {
      "dataValue" : "Cape Verde"
    }, {
      "dataValue" : "Cayman Islands"
    }, {
      "dataValue" : "Central African Republic"
    }, {
      "dataValue" : "Chad"
    }, {
      "dataValue" : "Chile"
    }, {
      "dataValue" : "China"
    }, {
      "dataValue" : "Christmas Island"
    }, {
      "dataValue" : "Cocos (Keeling) Islands"
    }, {
      "dataValue" : "Colombia"
    }, {
      "dataValue" : "Comoros"
    }, {
      "dataValue" : "Congo"
    }, {
      "dataValue" : "Congo, The Democratic Republic of The"
    }, {
      "dataValue" : "Cook Islands"
    }, {
      "dataValue" : "Costa Rica"
    }, {
      "dataValue" : "Cote D'ivoire"
    }, {
      "dataValue" : "Croatia"
    }, {
      "dataValue" : "Cuba"
    }, {
      "dataValue" : "Curacao"
    }, {
      "dataValue" : "Cyprus"
    }, {
      "dataValue" : "Czech Republic"
    }, {
      "dataValue" : "Denmark"
    }, {
      "dataValue" : "Djibouti"
    }, {
      "dataValue" : "Dominica"
    }, {
      "dataValue" : "Dominican Republic"
    }, {
      "dataValue" : "Ecuador"
    }, {
      "dataValue" : "Egypt"
    }, {
      "dataValue" : "El Salvador"
    }, {
      "dataValue" : "Equatorial Guinea"
    }, {
      "dataValue" : "Eritrea"
    }, {
      "dataValue" : "Estonia"
    }, {
      "dataValue" : "Ethiopia"
    }, {
      "dataValue" : "Falkland Islands (Malvinas)"
    }, {
      "dataValue" : "Faroe Islands"
    }, {
      "dataValue" : "Fiji"
    }, {
      "dataValue" : "Finland"
    }, {
      "dataValue" : "France"
    }, {
      "dataValue" : "French Guiana"
    }, {
      "dataValue" : "French Polynesia"
    }, {
      "dataValue" : "French Southern Territories"
    }, {
      "dataValue" : "Gabon"
    }, {
      "dataValue" : "Gambia"
    }, {
      "dataValue" : "Georgia"
    }, {
      "dataValue" : "Germany"
    }, {
      "dataValue" : "Ghana"
    }, {
      "dataValue" : "Gibraltar"
    }, {
      "dataValue" : "Greece"
    }, {
      "dataValue" : "Greenland"
    }, {
      "dataValue" : "Grenada"
    }, {
      "dataValue" : "Guadeloupe"
    }, {
      "dataValue" : "Guam"
    }, {
      "dataValue" : "Guatemala"
    }, {
      "dataValue" : "Guinea"
    }, {
      "dataValue" : "Guinea-bissau"
    }, {
      "dataValue" : "Guyana"
    }, {
      "dataValue" : "Haiti"
    }, {
      "dataValue" : "Heard Island and Mcdonald Islands"
    }, {
      "dataValue" : "Holy See (Vatican City State)"
    }, {
      "dataValue" : "Honduras"
    }, {
      "dataValue" : "Hong Kong"
    }, {
      "dataValue" : "Hungary"
    }, {
      "dataValue" : "Iceland"
    }, {
      "dataValue" : "India"
    }, {
      "dataValue" : "Indonesia"
    }, {
      "dataValue" : "Iran, Islamic Republic of"
    }, {
      "dataValue" : "Iraq"
    }, {
      "dataValue" : "Ireland"
    }, {
      "dataValue" : "Israel"
    }, {
      "dataValue" : "Italy"
    }, {
      "dataValue" : "Jamaica"
    }, {
      "dataValue" : "Japan"
    }, {
      "dataValue" : "Jordan"
    }, {
      "dataValue" : "Kazakhstan"
    }, {
      "dataValue" : "Kenya"
    }, {
      "dataValue" : "Kiribati"
    }, {
      "dataValue" : "Korea, Democratic People's Republic of"
    }, {
      "dataValue" : "Korea, Republic of"
    }, {
      "dataValue" : "Kuwait"
    }, {
      "dataValue" : "Kyrgyzstan"
    }, {
      "dataValue" : "Lao People's Democratic Republic"
    }, {
      "dataValue" : "Latvia"
    }, {
      "dataValue" : "Lebanon"
    }, {
      "dataValue" : "Lesotho"
    }, {
      "dataValue" : "Liberia"
    }, {
      "dataValue" : "Libyan Arab Jamahiriya"
    }, {
      "dataValue" : "Liechtenstein"
    }, {
      "dataValue" : "Lithuania"
    }, {
      "dataValue" : "Luxembourg"
    }, {
      "dataValue" : "Macao"
    }, {
      "dataValue" : "Macedonia, The Former Yugoslav Republic of"
    }, {
      "dataValue" : "Madagascar"
    }, {
      "dataValue" : "Malawi"
    }, {
      "dataValue" : "Malaysia"
    }, {
      "dataValue" : "Maldives"
    }, {
      "dataValue" : "Mali"
    }, {
      "dataValue" : "Malta"
    }, {
      "dataValue" : "Marshall Islands"
    }, {
      "dataValue" : "Martinique"
    }, {
      "dataValue" : "Mauritania"
    }, {
      "dataValue" : "Mauritius"
    }, {
      "dataValue" : "Mayotte"
    }, {
      "dataValue" : "Mexico"
    }, {
      "dataValue" : "Micronesia, Federated States of"
    }, {
      "dataValue" : "Moldova, Republic of"
    }, {
      "dataValue" : "Monaco"
    }, {
      "dataValue" : "Mongolia"
    }, {
      "dataValue" : "Montenegro"
    }, {
      "dataValue" : "Montserrat"
    }, {
      "dataValue" : "Morocco"
    }, {
      "dataValue" : "Mozambique"
    }, {
      "dataValue" : "Myanmar"
    }, {
      "dataValue" : "Namibia"
    }, {
      "dataValue" : "Nauru"
    }, {
      "dataValue" : "Nepal"
    }, {
      "dataValue" : "Netherlands"
    }, {
      "dataValue" : "Netherlands Antilles"
    }, {
      "dataValue" : "New Caledonia"
    }, {
      "dataValue" : "New Zealand"
    }, {
      "dataValue" : "Nicaragua"
    }, {
      "dataValue" : "Niger"
    }, {
      "dataValue" : "Nigeria"
    }, {
      "dataValue" : "Niue"
    }, {
      "dataValue" : "Norfolk Island"
    }, {
      "dataValue" : "Northern Mariana Islands"
    }, {
      "dataValue" : "Norway"
    }, {
      "dataValue" : "Oman"
    }, {
      "dataValue" : "Pakistan"
    }, {
      "dataValue" : "Palau"
    }, {
      "dataValue" : "Palestinian Territory, Occupied"
    }, {
      "dataValue" : "Panama"
    }, {
      "dataValue" : "Papua New Guinea"
    }, {
      "dataValue" : "Paraguay"
    }, {
      "dataValue" : "Peru"
    }, {
      "dataValue" : "Philippines"
    }, {
      "dataValue" : "Pitcairn"
    }, {
      "dataValue" : "Poland"
    }, {
      "dataValue" : "Portugal"
    }, {
      "dataValue" : "Puerto Rico"
    }, {
      "dataValue" : "Qatar"
    }, {
      "dataValue" : "Reunion"
    }, {
      "dataValue" : "Romania"
    }, {
      "dataValue" : "Russian Federation"
    }, {
      "dataValue" : "Rwanda"
    }, {
      "dataValue" : "Saint Helena"
    }, {
      "dataValue" : "Saint Kitts and Nevis"
    }, {
      "dataValue" : "Saint Lucia"
    }, {
      "dataValue" : "Saint Pierre and Miquelon"
    }, {
      "dataValue" : "Saint Vincent and The Grenadines"
    }, {
      "dataValue" : "Samoa"
    }, {
      "dataValue" : "San Marino"
    }, {
      "dataValue" : "Sao Tome and Principe"
    }, {
      "dataValue" : "Saudi Arabia"
    }, {
      "dataValue" : "Senegal"
    }, {
      "dataValue" : "Serbia"
    }, {
      "dataValue" : "Seychelles"
    }, {
      "dataValue" : "Sierra Leone"
    }, {
      "dataValue" : "Singapore"
    }, {
      "dataValue" : "Slovakia"
    }, {
      "dataValue" : "Slovenia"
    }, {
      "dataValue" : "Solomon Islands"
    }, {
      "dataValue" : "Somalia"
    }, {
      "dataValue" : "South Africa"
    }, {
      "dataValue" : "South Georgia and The South Sandwich Islands"
    }, {
      "dataValue" : "Spain"
    }, {
      "dataValue" : "Sri Lanka"
    }, {
      "dataValue" : "Sudan"
    }, {
      "dataValue" : "Suriname"
    }, {
      "dataValue" : "Svalbard and Jan Mayen"
    }, {
      "dataValue" : "Swaziland"
    }, {
      "dataValue" : "Sweden"
    }, {
      "dataValue" : "Switzerland"
    }, {
      "dataValue" : "Syrian Arab Republic"
    }, {
      "dataValue" : "Taiwan, Province of China"
    }, {
      "dataValue" : "Tajikistan"
    }, {
      "dataValue" : "Tanzania, United Republic of"
    }, {
      "dataValue" : "Thailand"
    }, {
      "dataValue" : "Timor-leste"
    }, {
      "dataValue" : "Togo"
    }, {
      "dataValue" : "Tokelau"
    }, {
      "dataValue" : "Tonga"
    }, {
      "dataValue" : "Trinidad and Tobago"
    }, {
      "dataValue" : "Tunisia"
    }, {
      "dataValue" : "Turkey"
    }, {
      "dataValue" : "Turkmenistan"
    }, {
      "dataValue" : "Turks and Caicos Islands"
    }, {
      "dataValue" : "Tuvalu"
    }, {
      "dataValue" : "Uganda"
    }, {
      "dataValue" : "Ukraine"
    }, {
      "dataValue" : "United Arab Emirates"
    }, {
      "dataValue" : "United Kingdom"
    }, {
      "dataValue" : "United States"
    }, {
      "dataValue" : "United States Minor Outlying Islands"
    }, {
      "dataValue" : "Uruguay"
    }, {
      "dataValue" : "Uzbekistan"
    }, {
      "dataValue" : "Vanuatu"
    }, {
      "dataValue" : "Venezuela"
    }, {
      "dataValue" : "Viet Nam"
    }, {
      "dataValue" : "Virgin Islands, British"
    }, {
      "dataValue" : "Virgin Islands, U.S."
    }, {
      "dataValue" : "Wallis and Futuna"
    }, {
      "dataValue" : "Western Sahara"
    }, {
      "dataValue" : "Yemen"
    }, {
      "dataValue" : "Zambia"
    }, {
      "dataValue" : "Zimbabwe"
    }, {
      "dataValue" : "Undivided India"
    } ],
    "type" : "entry",
    "isList" : true,
    "saveInPhonegap" : false
  },
  "DetailsOfPrevorCurrentPP" : {
    "_id" : "wm-DetailsOfPrevorCurrentPP-wm.Variable-1495447439249",
    "name" : "DetailsOfPrevorCurrentPP",
    "owner" : "Page",
    "category" : "wm.Variable",
    "dataBinding" : [ ],
    "dataSet" : [ {
      "name" : "DetailsAvailable",
      "dataValue" : "Details Available"
    }, {
      "name" : "DetailsNotAvailableNeverHeldDiplomaticOfficialPassport",
      "dataValue" : "Details Not Available/Never Held Diplomatic/Official Passport"
    } ],
    "type" : "entry",
    "isList" : true,
    "saveInPhonegap" : false
  },
  "EduactionQualification" : {
    "_id" : "wm-EduactionQualification-wm.Variable-1495186080081",
    "name" : "EduactionQualification",
    "owner" : "Page",
    "category" : "wm.Variable",
    "dataBinding" : [ ],
    "dataSet" : [ {
      "name" : "5th Pass or Less",
      "dataValue" : "5th Pass or Less"
    }, {
      "name" : "6th and 9th standard",
      "dataValue" : "6th and 9th standard"
    }, {
      "name" : "10th pass and above",
      "dataValue" : "10th pass and above"
    }, {
      "name" : "Graduate and above",
      "dataValue" : "Graduate and above"
    } ],
    "type" : "entry",
    "isList" : true,
    "saveInPhonegap" : false
  },
  "EmploymentType" : {
    "_id" : "wm-EmploymentType-wm.Variable-1495185010014",
    "name" : "EmploymentType",
    "owner" : "Page",
    "category" : "wm.Variable",
    "dataBinding" : [ ],
    "dataSet" : [ {
      "dataValue" : "Government"
    }, {
      "dataValue" : "Homemaker"
    }, {
      "dataValue" : "Not employed"
    }, {
      "dataValue" : "Others"
    }, {
      "dataValue" : "Owners,Partners& Directors of Companies which are members of CII, FICCI & Assocham"
    }, {
      "dataValue" : "Private"
    }, {
      "dataValue" : "PSU"
    }, {
      "dataValue" : "Retired Government Servant"
    }, {
      "dataValue" : "Retired-Private Service"
    }, {
      "dataValue" : "Self Employed"
    }, {
      "dataValue" : "Satutory Body"
    }, {
      "dataValue" : "Student"
    } ],
    "type" : "string",
    "isList" : true,
    "saveInPhonegap" : false
  },
  "MaritalStatus" : {
    "_id" : "wm-MaritalStatus-wm.Variable-1495184138816",
    "name" : "MaritalStatus",
    "owner" : "Page",
    "category" : "wm.Variable",
    "dataBinding" : [ ],
    "dataSet" : [ {
      "name" : "Single",
      "dataValue" : "Single"
    }, {
      "name" : "Married",
      "dataValue" : "Married"
    }, {
      "name" : "Divorced",
      "dataValue" : "Divorced"
    }, {
      "name" : "Widow/Widower",
      "dataValue" : "Widow/Widower"
    }, {
      "name" : "Separated",
      "dataValue" : "Separated"
    } ],
    "type" : "entry",
    "isList" : true,
    "saveInPhonegap" : false
  },
  "months" : {
    "_id" : "wm-staticVariable1-wm.Variable-1495623957773",
    "name" : "months",
    "owner" : "Page",
    "category" : "wm.Variable",
    "dataBinding" : [ ],
    "dataSet" : [ {
      "name" : "January",
      "dataValue" : 1
    }, {
      "name" : "February",
      "dataValue" : 2
    }, {
      "name" : "March",
      "dataValue" : 3
    }, {
      "name" : "April",
      "dataValue" : 4
    }, {
      "name" : "May",
      "dataValue" : 5
    }, {
      "name" : "June",
      "dataValue" : 6
    }, {
      "name" : "July",
      "dataValue" : 7
    }, {
      "name" : "August",
      "dataValue" : 8
    }, {
      "name" : "September",
      "dataValue" : 9
    }, {
      "name" : "October",
      "dataValue" : 10
    }, {
      "name" : "November",
      "dataValue" : 11
    }, {
      "name" : "December",
      "dataValue" : 12
    } ],
    "type" : "entry",
    "isList" : true,
    "saveInPhonegap" : false
  },
  "PassportAPPApplicantDetailsData" : {
    "_id" : "wm-PassportAPPApplicantDetailsData-wm.LiveVariable-1495112253672",
    "name" : "PassportAPPApplicantDetailsData",
    "owner" : "Page",
    "category" : "wm.LiveVariable",
    "dataBinding" : [ {
      "target" : "applicantGivenName",
      "value" : "bind:Widgets.liveform1.formWidgets.form_field6.datavalue",
      "type" : "string"
    } ],
    "operation" : "read",
    "dataSet" : [ ],
    "type" : "ApplicantDetails",
    "isList" : true,
    "saveInPhonegap" : false,
    "maxResults" : 20,
    "designMaxResults" : 10,
    "inFlightBehavior" : "executeLast",
    "startUpdate" : true,
    "autoUpdate" : true,
    "transformationRequired" : false,
    "liveSource" : "PassportAPP",
    "ignoreCase" : true,
    "matchMode" : "start",
    "orderBy" : "id asc",
    "propertiesMap" : {
      "columns" : [ {
        "fieldName" : "id",
        "type" : "integer",
        "fullyQualifiedType" : "integer",
        "columnName" : "ID",
        "isPrimaryKey" : true,
        "notNull" : true,
        "length" : 0,
        "precision" : 10,
        "generator" : "identity",
        "isRelated" : false,
        "scale" : 0
      }, {
        "fieldName" : "applicantGivenName",
        "type" : "string",
        "fullyQualifiedType" : "string",
        "columnName" : "ApplicantGivenName",
        "isPrimaryKey" : false,
        "notNull" : false,
        "length" : 55,
        "precision" : 0,
        "generator" : "assigned",
        "isRelated" : false,
        "defaultValue" : "",
        "scale" : 0
      }, {
        "fieldName" : "applicantSurName",
        "type" : "string",
        "fullyQualifiedType" : "string",
        "columnName" : "ApplicantSurName",
        "isPrimaryKey" : false,
        "notNull" : false,
        "length" : 45,
        "precision" : 0,
        "generator" : "assigned",
        "isRelated" : false,
        "defaultValue" : "",
        "scale" : 0
      }, {
        "fieldName" : "applicationType",
        "type" : "string",
        "fullyQualifiedType" : "string",
        "columnName" : "ApplicationType",
        "isPrimaryKey" : false,
        "notNull" : false,
        "length" : 255,
        "precision" : 0,
        "generator" : "assigned",
        "isRelated" : false,
        "defaultValue" : "",
        "scale" : 0
      }, {
        "fieldName" : "applyingfor",
        "type" : "string",
        "fullyQualifiedType" : "string",
        "columnName" : "Applyingfor",
        "isPrimaryKey" : false,
        "notNull" : false,
        "length" : 255,
        "precision" : 0,
        "generator" : "assigned",
        "isRelated" : false,
        "scale" : 0
      }, {
        "fieldName" : "dob",
        "type" : "date",
        "fullyQualifiedType" : "date",
        "columnName" : "DOB",
        "isPrimaryKey" : false,
        "notNull" : false,
        "length" : 0,
        "precision" : 0,
        "generator" : "assigned",
        "isRelated" : false,
        "defaultValue" : "",
        "scale" : 0
      }, {
        "fieldName" : "gender",
        "type" : "string",
        "fullyQualifiedType" : "string",
        "columnName" : "Gender",
        "isPrimaryKey" : false,
        "notNull" : false,
        "length" : 20,
        "precision" : 0,
        "generator" : "assigned",
        "isRelated" : false,
        "defaultValue" : "",
        "scale" : 0
      }, {
        "fieldName" : "passportBookeltsize",
        "type" : "string",
        "fullyQualifiedType" : "string",
        "columnName" : "PassportBookeltsize",
        "isPrimaryKey" : false,
        "notNull" : false,
        "length" : 255,
        "precision" : 0,
        "generator" : "assigned",
        "isRelated" : false,
        "scale" : 0
      }, {
        "fieldName" : "reissueReason",
        "type" : "string",
        "fullyQualifiedType" : "string",
        "columnName" : "ReissueReason",
        "isPrimaryKey" : false,
        "notNull" : false,
        "length" : 80,
        "precision" : 0,
        "generator" : "assigned",
        "isRelated" : false,
        "defaultValue" : "",
        "scale" : 0
      }, {
        "fieldName" : "isDraft",
        "type" : "boolean",
        "fullyQualifiedType" : "boolean",
        "columnName" : "IsDraft",
        "isPrimaryKey" : false,
        "notNull" : false,
        "length" : 0,
        "precision" : 1,
        "generator" : "assigned",
        "isRelated" : false,
        "scale" : 0
      } ],
      "entityName" : "ApplicantDetails",
      "fullyQualifiedName" : "com.passportapp.passportapp.ApplicantDetails",
      "tableType" : "TABLE",
      "primaryFields" : [ "id" ]
    },
    "isDefault" : true,
    "bindCount" : 3,
    "tableName" : "ApplicantDetails",
    "tableType" : "TABLE",
    "properties" : [ ],
    "relatedTables" : [ ],
    "filterFields" : { },
    "package" : "com.passportapp.passportapp.ApplicantDetails"
  },
  "Passportapplicationfor" : {
    "_id" : "wm-staticVariable1-wm.Variable-1495113449328",
    "name" : "Passportapplicationfor",
    "owner" : "Page",
    "category" : "wm.Variable",
    "dataBinding" : [ ],
    "dataSet" : [ {
      "name" : "Fresh Passport",
      "dataValue" : "Fresh Passport"
    }, {
      "name" : "Re-issue of Passport",
      "dataValue" : "Re-issue of Passport"
    } ],
    "type" : "entry",
    "isList" : true,
    "saveInPhonegap" : false
  },
  "PassportData_Submit_NoValidate" : {
    "_id" : "wm-PassportData_Submit_NoValidate-wm.LiveVariable-1496129438812",
    "name" : "PassportData_Submit_NoValidate",
    "owner" : "Page",
    "category" : "wm.LiveVariable",
    "dataBinding" : [ {
      "target" : "isDraft",
      "value" : true,
      "type" : "boolean"
    }, {
      "target" : "dataBinding",
      "value" : "bind:Widgets.liveform1.dataoutput"
    } ],
    "operation" : "insert",
    "dataSet" : [ ],
    "type" : "ApplicantDetails",
    "isList" : false,
    "saveInPhonegap" : false,
    "maxResults" : 20,
    "designMaxResults" : 10,
    "inFlightBehavior" : "executeLast",
    "startUpdate" : false,
    "autoUpdate" : false,
    "transformationRequired" : false,
    "liveSource" : "PassportAPP",
    "ignoreCase" : true,
    "matchMode" : "start",
    "orderBy" : "id asc",
    "propertiesMap" : {
      "columns" : [ {
        "fieldName" : "id",
        "type" : "integer",
        "fullyQualifiedType" : "integer",
        "columnName" : "ID",
        "isPrimaryKey" : true,
        "notNull" : true,
        "length" : 0,
        "precision" : 10,
        "generator" : "identity",
        "isRelated" : false,
        "scale" : 0
      }, {
        "fieldName" : "applicantGivenName",
        "type" : "string",
        "fullyQualifiedType" : "string",
        "columnName" : "ApplicantGivenName",
        "isPrimaryKey" : false,
        "notNull" : false,
        "length" : 55,
        "precision" : 0,
        "generator" : "assigned",
        "isRelated" : false,
        "defaultValue" : "",
        "scale" : 0
      }, {
        "fieldName" : "applicantSurName",
        "type" : "string",
        "fullyQualifiedType" : "string",
        "columnName" : "ApplicantSurName",
        "isPrimaryKey" : false,
        "notNull" : false,
        "length" : 45,
        "precision" : 0,
        "generator" : "assigned",
        "isRelated" : false,
        "defaultValue" : "",
        "scale" : 0
      }, {
        "fieldName" : "applicationType",
        "type" : "string",
        "fullyQualifiedType" : "string",
        "columnName" : "ApplicationType",
        "isPrimaryKey" : false,
        "notNull" : false,
        "length" : 255,
        "precision" : 0,
        "generator" : "assigned",
        "isRelated" : false,
        "defaultValue" : "",
        "scale" : 0
      }, {
        "fieldName" : "applyingfor",
        "type" : "string",
        "fullyQualifiedType" : "string",
        "columnName" : "Applyingfor",
        "isPrimaryKey" : false,
        "notNull" : false,
        "length" : 255,
        "precision" : 0,
        "generator" : "assigned",
        "isRelated" : false,
        "scale" : 0
      }, {
        "fieldName" : "dob",
        "type" : "date",
        "fullyQualifiedType" : "date",
        "columnName" : "DOB",
        "isPrimaryKey" : false,
        "notNull" : false,
        "length" : 0,
        "precision" : 0,
        "generator" : "assigned",
        "isRelated" : false,
        "defaultValue" : "",
        "scale" : 0
      }, {
        "fieldName" : "gender",
        "type" : "string",
        "fullyQualifiedType" : "string",
        "columnName" : "Gender",
        "isPrimaryKey" : false,
        "notNull" : false,
        "length" : 20,
        "precision" : 0,
        "generator" : "assigned",
        "isRelated" : false,
        "defaultValue" : "",
        "scale" : 0
      }, {
        "fieldName" : "passportBookeltsize",
        "type" : "string",
        "fullyQualifiedType" : "string",
        "columnName" : "PassportBookeltsize",
        "isPrimaryKey" : false,
        "notNull" : false,
        "length" : 255,
        "precision" : 0,
        "generator" : "assigned",
        "isRelated" : false,
        "scale" : 0
      }, {
        "fieldName" : "reissueReason",
        "type" : "string",
        "fullyQualifiedType" : "string",
        "columnName" : "ReissueReason",
        "isPrimaryKey" : false,
        "notNull" : false,
        "length" : 80,
        "precision" : 0,
        "generator" : "assigned",
        "isRelated" : false,
        "defaultValue" : "",
        "scale" : 0
      }, {
        "fieldName" : "isDraft",
        "type" : "boolean",
        "fullyQualifiedType" : "boolean",
        "columnName" : "IsDraft",
        "isPrimaryKey" : false,
        "notNull" : false,
        "length" : 0,
        "precision" : 1,
        "generator" : "assigned",
        "isRelated" : false,
        "scale" : 0
      } ],
      "entityName" : "ApplicantDetails",
      "fullyQualifiedName" : "com.passportapp.passportapp.ApplicantDetails",
      "tableType" : "TABLE",
      "primaryFields" : [ "id" ]
    },
    "tableName" : "ApplicantDetails",
    "tableType" : "TABLE",
    "properties" : [ ],
    "relatedTables" : [ ],
    "filterFields" : { },
    "inputFields" : { },
    "package" : "com.passportapp.passportapp.ApplicantDetails"
  },
  "PassportData_Submit_Validate" : {
    "_id" : "wm-PassportData_Submit_Validate-wm.LiveVariable-1496128602665",
    "name" : "PassportData_Submit_Validate",
    "owner" : "Page",
    "category" : "wm.LiveVariable",
    "dataBinding" : [ {
      "target" : "isDraft",
      "value" : false,
      "type" : "boolean"
    }, {
      "target" : "dataBinding",
      "value" : "bind:Widgets.liveform1.dataoutput"
    } ],
    "operation" : "insert",
    "dataSet" : [ ],
    "type" : "ApplicantDetails",
    "isList" : false,
    "saveInPhonegap" : false,
    "maxResults" : 20,
    "designMaxResults" : 10,
    "inFlightBehavior" : "executeLast",
    "startUpdate" : false,
    "autoUpdate" : false,
    "transformationRequired" : false,
    "liveSource" : "PassportAPP",
    "ignoreCase" : true,
    "matchMode" : "start",
    "propertiesMap" : {
      "columns" : [ {
        "fieldName" : "id",
        "type" : "integer",
        "fullyQualifiedType" : "integer",
        "columnName" : "ID",
        "isPrimaryKey" : true,
        "notNull" : true,
        "length" : 0,
        "precision" : 10,
        "generator" : "identity",
        "isRelated" : false,
        "scale" : 0
      }, {
        "fieldName" : "applicantGivenName",
        "type" : "string",
        "fullyQualifiedType" : "string",
        "columnName" : "ApplicantGivenName",
        "isPrimaryKey" : false,
        "notNull" : false,
        "length" : 55,
        "precision" : 0,
        "generator" : "assigned",
        "isRelated" : false,
        "defaultValue" : "",
        "scale" : 0
      }, {
        "fieldName" : "applicantSurName",
        "type" : "string",
        "fullyQualifiedType" : "string",
        "columnName" : "ApplicantSurName",
        "isPrimaryKey" : false,
        "notNull" : false,
        "length" : 45,
        "precision" : 0,
        "generator" : "assigned",
        "isRelated" : false,
        "defaultValue" : "",
        "scale" : 0
      }, {
        "fieldName" : "applicationType",
        "type" : "string",
        "fullyQualifiedType" : "string",
        "columnName" : "ApplicationType",
        "isPrimaryKey" : false,
        "notNull" : false,
        "length" : 255,
        "precision" : 0,
        "generator" : "assigned",
        "isRelated" : false,
        "defaultValue" : "",
        "scale" : 0
      }, {
        "fieldName" : "applyingfor",
        "type" : "string",
        "fullyQualifiedType" : "string",
        "columnName" : "Applyingfor",
        "isPrimaryKey" : false,
        "notNull" : false,
        "length" : 255,
        "precision" : 0,
        "generator" : "assigned",
        "isRelated" : false,
        "scale" : 0
      }, {
        "fieldName" : "dob",
        "type" : "date",
        "fullyQualifiedType" : "date",
        "columnName" : "DOB",
        "isPrimaryKey" : false,
        "notNull" : false,
        "length" : 0,
        "precision" : 0,
        "generator" : "assigned",
        "isRelated" : false,
        "defaultValue" : "",
        "scale" : 0
      }, {
        "fieldName" : "gender",
        "type" : "string",
        "fullyQualifiedType" : "string",
        "columnName" : "Gender",
        "isPrimaryKey" : false,
        "notNull" : false,
        "length" : 20,
        "precision" : 0,
        "generator" : "assigned",
        "isRelated" : false,
        "defaultValue" : "",
        "scale" : 0
      }, {
        "fieldName" : "passportBookeltsize",
        "type" : "string",
        "fullyQualifiedType" : "string",
        "columnName" : "PassportBookeltsize",
        "isPrimaryKey" : false,
        "notNull" : false,
        "length" : 255,
        "precision" : 0,
        "generator" : "assigned",
        "isRelated" : false,
        "scale" : 0
      }, {
        "fieldName" : "reissueReason",
        "type" : "string",
        "fullyQualifiedType" : "string",
        "columnName" : "ReissueReason",
        "isPrimaryKey" : false,
        "notNull" : false,
        "length" : 80,
        "precision" : 0,
        "generator" : "assigned",
        "isRelated" : false,
        "defaultValue" : "",
        "scale" : 0
      }, {
        "fieldName" : "isDraft",
        "type" : "boolean",
        "fullyQualifiedType" : "boolean",
        "columnName" : "IsDraft",
        "isPrimaryKey" : false,
        "notNull" : false,
        "length" : 0,
        "precision" : 1,
        "generator" : "assigned",
        "isRelated" : false,
        "scale" : 0
      } ],
      "entityName" : "ApplicantDetails",
      "fullyQualifiedName" : "com.passportapp.passportapp.ApplicantDetails",
      "tableType" : "TABLE",
      "primaryFields" : [ "id" ]
    },
    "tableName" : "ApplicantDetails",
    "tableType" : "TABLE",
    "properties" : [ ],
    "relatedTables" : [ ],
    "filterFields" : { },
    "inputFields" : { },
    "package" : "com.passportapp.passportapp.ApplicantDetails"
  },
  "reissueReason" : {
    "_id" : "wm-reissueReason-wm.Variable-1495168191910",
    "name" : "reissueReason",
    "owner" : "Page",
    "category" : "wm.Variable",
    "dataBinding" : [ ],
    "dataSet" : [ {
      "name" : "Validity Expired within 3 years/Due to Expire",
      "dataValue" : "Validity Expired within 3 years/Due to Expire"
    }, {
      "name" : "Validity Expired more than 3 years ago",
      "dataValue" : "Validity Expired more than 3 years ago"
    }, {
      "name" : "Change in Existing Personal Particulars",
      "dataValue" : "Change in Existing Personal Particulars"
    }, {
      "name" : "Exhaustion of Pages",
      "dataValue" : "Exhaustion of Pages"
    }, {
      "name" : "Lost Passport",
      "dataValue" : "Lost Passport"
    }, {
      "name" : "Damaged Passport",
      "dataValue" : "Damaged Passport"
    } ],
    "type" : "entry",
    "isList" : true,
    "saveInPhonegap" : false
  }
}